-- Merging decision tree log ---
manifest
ADDED from /Volumes/Ravi/flutter/.pub-cache/hosted/pub.dartlang.org/flutter_facebook_login-3.0.0/android/src/main/AndroidManifest.xml:1:1-3:12
INJECTED from /Volumes/Ravi/flutter/.pub-cache/hosted/pub.dartlang.org/flutter_facebook_login-3.0.0/android/src/main/AndroidManifest.xml:1:1-3:12
INJECTED from /Volumes/Ravi/flutter/.pub-cache/hosted/pub.dartlang.org/flutter_facebook_login-3.0.0/android/src/main/AndroidManifest.xml:1:1-3:12
	package
		ADDED from /Volumes/Ravi/flutter/.pub-cache/hosted/pub.dartlang.org/flutter_facebook_login-3.0.0/android/src/main/AndroidManifest.xml:2:3-53
		INJECTED from /Volumes/Ravi/flutter/.pub-cache/hosted/pub.dartlang.org/flutter_facebook_login-3.0.0/android/src/main/AndroidManifest.xml
		INJECTED from /Volumes/Ravi/flutter/.pub-cache/hosted/pub.dartlang.org/flutter_facebook_login-3.0.0/android/src/main/AndroidManifest.xml
	xmlns:android
		ADDED from /Volumes/Ravi/flutter/.pub-cache/hosted/pub.dartlang.org/flutter_facebook_login-3.0.0/android/src/main/AndroidManifest.xml:1:11-69
uses-sdk
INJECTED from /Volumes/Ravi/flutter/.pub-cache/hosted/pub.dartlang.org/flutter_facebook_login-3.0.0/android/src/main/AndroidManifest.xml reason: use-sdk injection requested
INJECTED from /Volumes/Ravi/flutter/.pub-cache/hosted/pub.dartlang.org/flutter_facebook_login-3.0.0/android/src/main/AndroidManifest.xml
INJECTED from /Volumes/Ravi/flutter/.pub-cache/hosted/pub.dartlang.org/flutter_facebook_login-3.0.0/android/src/main/AndroidManifest.xml
	android:minSdkVersion
		INJECTED from /Volumes/Ravi/flutter/.pub-cache/hosted/pub.dartlang.org/flutter_facebook_login-3.0.0/android/src/main/AndroidManifest.xml
		ADDED from /Volumes/Ravi/flutter/.pub-cache/hosted/pub.dartlang.org/flutter_facebook_login-3.0.0/android/src/main/AndroidManifest.xml
		INJECTED from /Volumes/Ravi/flutter/.pub-cache/hosted/pub.dartlang.org/flutter_facebook_login-3.0.0/android/src/main/AndroidManifest.xml
