<svg width="32" height="43" viewBox="0 0 32 43" fill="none" xmlns="http://www.w3.org/2000/svg">
<path d="M16 0.818237C7.17785 0.818237 0 8.0254 0 16.8836C0 20.3891 1.10277 23.72 3.1918 26.5145L15.0137 42.5016C15.0433 42.5403 15.0884 42.5552 15.1212 42.5898C15.712 43.225 16.5645 43.0651 16.9854 42.5016C20.3897 37.9407 26.6297 29.4228 29.0289 26.2097C29.0289 26.2097 29.0297 26.2072 29.0306 26.2056L29.0453 26.1858C30.9785 23.4588 32 20.2425 32 16.8836C32 8.0254 24.8222 0.818237 16 0.818237Z" fill="#4B52F1"/>
</svg>
